%YAML 1.1
%TAG !u! tag:unity3d.com,2011:
--- !u!114 &11400000
MonoBehaviour:
  m_ObjectHideFlags: 0
  m_CorrespondingSourceObject: {fileID: 0}
  m_PrefabInstance: {fileID: 0}
  m_PrefabAsset: {fileID: 0}
  m_GameObject: {fileID: 0}
  m_Enabled: 1
  m_EditorHideFlags: 0
  m_Script: {fileID: 11500000, guid: 0e4a5ac184b7a424ca1544f9a3d0cef2, type: 3}
  m_Name: Drawable
  m_EditorClassIdentifier: 
  connectedPrefab: {fileID: 1257111676502862, guid: 3c688e02b792d89488ea2fe833323106,
    type: 3}
  icon: {fileID: 10913, guid: 0000000000000000f000000000000000, type: 0}
  spawnUI: 1
  itemUI: {fileID: 1341164273875498, guid: 9faca2d0fd6696946a08d8d3f3094c88, type: 3}
  keepUIActiveIfDropped: 0
  setOwnerAsParent: 1
  value: 0
  weight: 0
  droppable: 0
  droppedPrefab: {fileID: 0}
  quickMenuCompatible: 0
  particleFX: {fileID: 0}
  animState: 
  buffs: []
  locationData: {fileID: 0}
  defaultSpawnLocation:
    stringValue: 
    indexValue: 0
    stringValues: []
  removeAmount: 1
  recoilTime: 0.3
  instantFirstUse: 0
  ammoType: 1
  localAmmo:
    valueName: ValueName
    data: {fileID: 11400000, guid: bfde757329a56bc4a97401f96bed6bee, type: 2}
    maxCount: 1
    unlimitedTotalAmount: 0
  globalAmmoManager: {fileID: 0}
  globalAmmo:
    stringValue: 
    indexValue: 0
    stringValues: []
  onEmpty: 0
  aimMask:
    serializedVersion: 2
    m_Bits: 0
  aimDistance: 10
  aimOffset: {x: 0, y: 0, z: 0}
  muzzlePos: Muzzle
  muzzlePosInd: 1
  aimFX: {fileID: 11400000, guid: 057445ff5c3013b49978d805599bb5ca, type: 2}
  drawButton:
    stringValue: Fire1
    indexValue: 2
  topPrefab: {fileID: 1286627096264946, guid: 8b6efdfa0c7a7b3489e571f077ea05f7, type: 3}
  growLinePrefab: {fileID: 1286627096264946, guid: 8b6efdfa0c7a7b3489e571f077ea05f7,
    type: 3}
  trailRenderer: {fileID: 1313737771631784, guid: 404a10f28bcba37479ffe836c5a1197a,
    type: 3}
  sensitivityDistance: 0.3
  growSpeed: 10
  useMask: 1
  drawableMask:
    serializedVersion: 2
    m_Bits: 256
  blockableMask:
    serializedVersion: 2
    m_Bits: 65536
