%YAML 1.1
%TAG !u! tag:unity3d.com,2011:
--- !u!114 &11400000
MonoBehaviour:
  m_ObjectHideFlags: 0
  m_CorrespondingSourceObject: {fileID: 0}
  m_PrefabInstance: {fileID: 0}
  m_PrefabAsset: {fileID: 0}
  m_GameObject: {fileID: 0}
  m_Enabled: 1
  m_EditorHideFlags: 0
  m_Script: {fileID: 11500000, guid: 93c1f63ab1f214e49a90401d1c9fafd6, type: 3}
  m_Name: EngineEventManager
  m_EditorClassIdentifier: 
  engineEvents:
  - eventArrayName: Die
    events:
    - eventName: 'Event 1 (Finished) '
      sceneObject:
        sceneObjectType: 2
        overrideGameObject: {fileID: 0}
        closestTag: 
        nameToFind: 
      startType: 0
      inputButton:
        stringValue: Horizontal
        indexValue: 0
      eventTypeMask: 19
      commons:
      - optionName: 
        affectedObj: 0
        overrideObject: {fileID: 0}
        eventType: 3
        active: 0
        delay: 0
        objToSpawn: {fileID: 0}
        positionType: 0
        position: {x: 0, y: 0, z: 0}
        rotation: {x: 0, y: 0, z: 0}
        positionObj:
          sceneObjectType: 2
          overrideGameObject: {fileID: 0}
          closestTag: 
          nameToFind: 
        setParent: 0
        parentObj:
          sceneObjectType: 2
          overrideGameObject: {fileID: 0}
          closestTag: 
          nameToFind: 
      anims:
      - optionName: 
        affectedObj: 0
        overrideObject: {fileID: 0}
        animController: {fileID: 9100000, guid: 73e810079db905b4cae2d4b8707abc65,
          type: 2}
        state:
          indexValue: 1
          stringValue: Death00
          layer: 0
        crossfadeTime: 0
      methods: []
      interacts: []
      eventOptions: []
      valueDeltaOptions:
      - optionName: 
        affectedObj: 0
        overrideObject: {fileID: 0}
        valueDelta:
          valueDataManager: {fileID: 11400000, guid: 0eb7e98275f9ac34ea499fe1799e6600,
            type: 2}
          valueSelection:
            selectionName: Lives | PlayerLivesNew
            category:
              stringValue: Lives
              indexValue: 1
              stringValues: []
            engineValue:
              stringValue: PlayerLivesNew
              indexValue: 0
              stringValues: []
            valueData: {fileID: 11400000, guid: 4fd9e1d63829393469421f3c6d92fc4c,
              type: 2}
          engineValueType: 1
          deltaType: 1
          valueDelta: 1
          rechargeSpeed: 0
          overheatTime: 0
          engineValueData: {fileID: 0}
      controllerOptions: []
      detectZoneInd: 0
      delay: 0
      repeat: 0
      repeatTime: 0
      finishType: 0
      totalTime: 0
      active: 0
      finished: 1
    - eventName: 'Event 2 (Finished) '
      sceneObject:
        sceneObjectType: 2
        overrideGameObject: {fileID: 0}
        closestTag: 
        nameToFind: 
      startType: 0
      inputButton:
        stringValue: Horizontal
        indexValue: 0
      eventTypeMask: 18
      commons:
      - optionName: 
        affectedObj: 0
        overrideObject: {fileID: 0}
        eventType: 3
        active: 0
        delay: 0
        objToSpawn: {fileID: 0}
        positionType: 0
        position: {x: 0, y: 0, z: 0}
        rotation: {x: 0, y: 0, z: 0}
        positionObj:
          sceneObjectType: 2
          overrideGameObject: {fileID: 0}
          closestTag: 
          nameToFind: 
        setParent: 0
        parentObj:
          sceneObjectType: 0
          overrideGameObject: {fileID: 0}
          closestTag: 
          nameToFind: 
      anims:
      - optionName: 
        affectedObj: 0
        overrideObject: {fileID: 0}
        animController: {fileID: 9100000, guid: 73e810079db905b4cae2d4b8707abc65,
          type: 2}
        state:
          indexValue: 0
          stringValue: Idle
          layer: 0
        crossfadeTime: 0
      methods: []
      interacts: []
      eventOptions: []
      valueDeltaOptions:
      - optionName: 
        affectedObj: 0
        overrideObject: {fileID: 0}
        valueDelta:
          valueDataManager: {fileID: 11400000, guid: 0eb7e98275f9ac34ea499fe1799e6600,
            type: 2}
          valueSelection:
            selectionName: Health | PlayerHP
            category:
              stringValue: Health
              indexValue: 0
              stringValues: []
            engineValue:
              stringValue: PlayerHP
              indexValue: 0
              stringValues: []
            valueData: {fileID: 11400000, guid: 095945809c382254c8ea07deb65d9820,
              type: 2}
          engineValueType: 2
          deltaType: 1
          valueDelta: 1
          rechargeSpeed: 0
          overheatTime: 0
          engineValueData: {fileID: 0}
      controllerOptions: []
      detectZoneInd: 0
      delay: 2
      repeat: 0
      repeatTime: 0
      finishType: 0
      totalTime: 0
      active: 0
      finished: 1
  - eventArrayName: Hurt
    events: []
  - eventArrayName: Respawn
    events:
    - eventName: 'Event 1 (Finished) '
      sceneObject:
        sceneObjectType: 2
        overrideGameObject: {fileID: 0}
        closestTag: 
        nameToFind: 
      startType: 0
      inputButton:
        stringValue: Horizontal
        indexValue: 0
      eventTypeMask: 19
      commons:
      - optionName: 
        affectedObj: 0
        overrideObject: {fileID: 0}
        eventType: 4
        active: 0
        delay: 0
        objToSpawn: {fileID: 0}
        positionType: 0
        position: {x: 0, y: 0, z: 0}
        rotation: {x: 0, y: 0, z: 0}
        positionObj:
          sceneObjectType: 2
          overrideGameObject: {fileID: 0}
          closestTag: 
          nameToFind: 
        setParent: 0
        parentObj:
          sceneObjectType: 2
          overrideGameObject: {fileID: 0}
          closestTag: 
          nameToFind: 
      anims:
      - optionName: 
        affectedObj: 0
        overrideObject: {fileID: 0}
        animController: {fileID: 9100000, guid: 73e810079db905b4cae2d4b8707abc65,
          type: 2}
        state:
          indexValue: 0
          stringValue: Idle
          layer: 0
        crossfadeTime: 0
      methods: []
      interacts: []
      eventOptions: []
      valueDeltaOptions:
      - optionName: 
        affectedObj: 0
        overrideObject: {fileID: 0}
        valueDelta:
          valueDataManager: {fileID: 11400000, guid: 0eb7e98275f9ac34ea499fe1799e6600,
            type: 2}
          valueSelection:
            selectionName: Health | PlayerHP
            category:
              stringValue: Health
              indexValue: 0
              stringValues: []
            engineValue:
              stringValue: PlayerHP
              indexValue: 0
              stringValues: []
            valueData: {fileID: 11400000, guid: 095945809c382254c8ea07deb65d9820,
              type: 2}
          engineValueType: 2
          deltaType: 0
          valueDelta: 0
          rechargeSpeed: 0
          overheatTime: 0
          engineValueData: {fileID: 0}
      controllerOptions: []
      detectZoneInd: 0
      delay: 2
      repeat: 0
      repeatTime: 0
      finishType: 0
      totalTime: 0
      active: 0
      finished: 1
  - eventArrayName: LoseGame
    events:
    - eventName: 'Event 1 (Finished) '
      sceneObject:
        sceneObjectType: 2
        overrideGameObject: {fileID: 0}
        closestTag: 
        nameToFind: 
      startType: 0
      inputButton:
        stringValue: Horizontal
        indexValue: 0
      eventTypeMask: 1
      commons:
      - optionName: 
        affectedObj: 0
        overrideObject: {fileID: 0}
        eventType: 5
        active: 0
        delay: 0
        objToSpawn: {fileID: 0}
        positionType: 0
        position: {x: 0, y: 0, z: 0}
        rotation: {x: 0, y: 0, z: 0}
        positionObj:
          sceneObjectType: 2
          overrideGameObject: {fileID: 0}
          closestTag: 
          nameToFind: 
        setParent: 0
        parentObj:
          sceneObjectType: 0
          overrideGameObject: {fileID: 0}
          closestTag: 
          nameToFind: 
      anims: []
      methods: []
      interacts: []
      eventOptions: []
      valueDeltaOptions: []
      controllerOptions: []
      detectZoneInd: 0
      delay: 0
      repeat: 0
      repeatTime: 0
      finishType: 0
      totalTime: 0
      active: 0
      finished: 1
