%YAML 1.1
%TAG !u! tag:unity3d.com,2011:
--- !u!114 &11400000
MonoBehaviour:
  m_ObjectHideFlags: 0
  m_CorrespondingSourceObject: {fileID: 0}
  m_PrefabInstance: {fileID: 0}
  m_PrefabAsset: {fileID: 0}
  m_GameObject: {fileID: 0}
  m_Enabled: 1
  m_EditorHideFlags: 0
  m_Script: {fileID: 11500000, guid: 4e9faf9d9c09d5b40932825e6443ef53, type: 3}
  m_Name: New Entity Rotation Data 1
  m_EditorClassIdentifier: 
  guid: 43012ae606fd504458c3558b8fbf7924
  expanded: 0
  propertyName: 
  typeInd: 0
  axis: 0
  rotationSpeed: 20
  maxAngle: 90
