%YAML 1.1
%TAG !u! tag:unity3d.com,2011:
--- !u!114 &11400000
MonoBehaviour:
  m_ObjectHideFlags: 0
  m_CorrespondingSourceObject: {fileID: 0}
  m_PrefabInstance: {fileID: 0}
  m_PrefabAsset: {fileID: 0}
  m_GameObject: {fileID: 0}
  m_Enabled: 1
  m_EditorHideFlags: 0
  m_Script: {fileID: 11500000, guid: c3149e104182aaf42a3500194485cd94, type: 3}
  m_Name: EffectTimeSlow
  m_EditorClassIdentifier: 
  delay: 0
  speedMultiplier: 0.5
  smoothTime: 1
  effectTime: 3
  includeSmoothTimeToEffectTime: 1
